Sex,Equipment,Division,WeightClassKg,Name,BodyweightKg,Best3SquatKg,Best3BenchKg,Bench4Kg,Best3DeadliftKg,TotalKg,Event,BirthDate,Place
M,Raw,Amateur Open,67.5,Erwin Goscin,65.7,132.5,120,,192.5,445,SBD,,1
M,Raw,Amateur Teen 16-17,67.5,Xander Deems,65.6,120,65,,142.5,327.5,SBD,,1
M,Raw,Amateur Masters 75-79,67.5,Arthur Mark Fowler Jr #1,66.6,90,85,,142.5,317.5,SBD,,1
M,Raw,Amateur Teen 14-15,75,Chance Dixon,70.8,137.5,80,,135,352.5,SBD,,1
M,Wraps,Amateur Masters 50-54,75,John Crowell,72.7,120,75,,170,365,SBD,,1
M,Raw,Amateur Open,75,CJ Hamil,75,215,147.5,,250,612.5,SBD,,1
M,Raw,Amateur Teen 16-17,75,Nikita Fomichenko,74.3,182.5,107.5,,200,490,SBD,,1
M,Raw,Amateur Teen 18-19,75,Philip Fomichenko,73,182.5,90,,200,472.5,SBD,,1
M,Raw,Pro Open,75,Jacob Dayan,70.2,235,140,,262.5,637.5,SBD,,1
M,Raw,Amateur Open,82.5,Dan Trainor,81,170,142.5,,237.5,550,SBD,,1
M,Raw,Amateur Juniors 20-23,82.5,Alex Crognale,81.8,215,147.5,,195,557.5,SBD,,1
M,Raw,Amateur Open,82.5,Nick Waring,81.8,142.5,130,,182.5,455,SBD,,1
M,Raw,Amateur Teen 18-19,82.5,Wyett Rightmire,78.6,215,150,,227.5,592.5,SBD,,1
M,Raw,Pro Open,82.5,Ernesto Lopez,81.2,75,140,,155,370,SBD,,1
M,Raw,Amateur Juniors 20-23,90,Evan Brooks,86.8,192.5,122.5,,242.5,557.5,SBD,,1
M,Raw,Amateur Open,90,Joe Niz,83.4,192.5,155,,240,587.5,SBD,,2
M,Raw,Amateur Open,90,Timothy Zhuravlev,87.1,245,162.5,,255,662.5,SBD,,1
M,Raw,Amateur Teen 18-19,90,Timothy Zhuravlev,87.1,245,162.5,,255,662.5,SBD,,1
M,Raw,Pro Open,90,Kyle Fields,83.3,207.5,137.5,,255,600,SBD,,1
M,Wraps,Amateur Masters 70-74,100,Gary Edwards,98.9,185,117.5,,218.5,521,SBD,,1
M,Raw,Amateur Open,100,Javier Figueroa,99.2,215,150,,235,600,SBD,,3
M,Raw,Amateur Open,100,Justin Caldwell,97.5,205,187.5,,222.5,615,SBD,,2
M,Raw,Amateur Open,100,Colin Zargham,96.2,232.5,150,,272.5,655,SBD,,1
M,Raw,Amateur Submasters 33-39,100,Joshua Wilson,95.7,240,162.5,,265,667.5,SBD,,1
M,Wraps,Pro Open,100,Logan Graham,98.7,235,185,,257.5,677.5,SBD,,2
M,Raw,Pro Open,100,Eugene Zhuravlev,98.6,277.5,217.5,,312.5,807.5,SBD,,1
M,Raw,Amateur Open,110,Joel Mohorter,100.4,227.5,160,,265,652.5,SBD,,2
M,Raw,Amateur Open,110,Russell Wood,106.3,257.5,197.5,,272.5,727.5,SBD,,1
M,Raw,Amateur Submasters 33-39,110,Eric Guzman,108.2,222.5,165,,227.5,615,SBD,,1
M,Raw,Amateur Teen 18-19,110,Devon Collier,104.7,200,127.5,,210,537.5,SBD,,1
M,Raw,Pro Open,110,Adam Frandsen,110,237.5,170,,272.5,680,SBD,,5
M,Raw,Pro Open,110,Nathaniel Tenbrook,102.9,265,172.5,,307.5,745,SBD,,4
M,Raw,Pro Open,110,Anthony Giarolo,108.8,237.5,215,,300,752.5,SBD,,3
M,Raw,Pro Open,110,Logan Lubinski,107.5,307.5,215,,307.5,830,SBD,,2
M,Raw,Pro Open,110,Miguel Mattis,106.8,305,200,,345,850,SBD,,1
M,Raw,Amateur Masters 40-44,125,Lloyd Marshall,111.5,200,177.5,,227.5,605,SBD,,1
M,Wraps,Amateur Juniors 20-23,125,Christian Bulnes,121.6,227.5,120,,237.5,585,SBD,,2
M,Raw,Amateur Juniors 20-23,125,Alexis Muniz,112.8,205,130,,257.5,592.5,SBD,,1
M,Raw,Amateur Masters 40-44,125,JB Peterson,123.9,190,157.5,,220,567.5,SBD,,2
M,Raw,Amateur Masters 40-44,125,Brent Sportsman,121.5,232.5,150,,267.5,650,SBD,,1
M,Raw,Amateur Open,125,Taylor Simensky,112,167.5,110,,207.5,485,SBD,,2
M,Raw,Amateur Open,125,Gustavo Muniz Jr,112.9,185,137.5,,232.5,555,SBD,,1
M,Raw,Pro Juniors 20-23,125,Avery Burns,121.9,280,210,,322.5,812.5,SBD,,1
M,Raw,Pro Open,125,Sergio Sanchez Jr,117.3,290,160,,305,755,SBD,,3
M,Raw,Pro Open,125,Avery Burns,121.9,280,210,,322.5,812.5,SBD,,2
M,Wraps,Pro Open,125,Ryan Hackney,115.5,335,207.5,,347.5,890,SBD,,1
M,Single-ply,Amateur Masters 50-54,125,Jeff Krause,121.6,205,142.5,,272.5,620,SBD,,1
M,Raw,Pro Masters 40-44,140,Ross Lustman,133.9,160,100,,192.5,452.5,SBD,,1
M,Wraps,Pro Open,140,Anthony Schiavi,126.1,240,197.5,,240,677.5,SBD,,1
M,Raw,Pro Open,140+,Matthew Cuthbert,150.2,320,192.5,,295,807.5,SBD,,1
M,Raw,Pro Submasters 33-39,140+,Ramsey Johnson,149.2,365,195,,302.5,862.5,SBD,,1
M,Raw,Amateur Masters 60-64,82.5,Joe Gaffin,79.3,,160,,,160,B,,1
M,Raw,Amateur Masters 60-64,110,Jim Venvertloh,107.8,,160,180,,160,B,,1
M,Raw,Amateur Masters 65-69,110,Ron Bailey,108.4,,175,,,175,B,,1
M,Raw,Amateur Submasters 33-39,110,Justin Radford,102.4,,150,,,150,B,,1
M,Unlimited,Pro Masters 55-59,125,John LaComb,122.9,,280,287.5,,280,B,,1
M,Unlimited,Pro Open,125,John LaComb,122.9,,280,287.5,,280,B,,1
M,Raw,Amateur Masters 75-79,67.5,Arthur Mark Fowler Jr #1,66.6,,85,,142.5,227.5,BD,,1
M,Raw,Pro Open,110,Miguel Mattis,106.8,,200,,345,545,BD,,1
M,Raw,Pro Open,125,Tim Bauer,119.2,,155,,240,395,BD,,1
F,Raw,Amateur Youth,44,Presley Costa,41.2,45,22.5,,70,137.5,SBD,,1
F,Raw,Amateur Open,48,Danielle Andujar,47,52.5,40,,82.5,175,SBD,,2
F,Raw,Amateur Open,48,Megan Morat,45.7,50,37.5,,92.5,180,SBD,,1
F,Raw,Amateur Juniors 20-23,48,Claire Ochs,45.2,52.5,27.5,,67.5,147.5,SBD,,1
F,Raw,Amateur Submasters 33-39,52,Lara Costa,50.7,92.5,42.5,,117.5,252.5,SBD,,1
F,Raw,Amateur Teen 18-19,56,Jazmin Reinhardt,55.2,100,42.5,,102.5,245,SBD,,1
F,Raw,Amateur Masters 40-44,60,Kelli Mathisen,57,75,50,,105,230,SBD,,1
F,Raw,Pro Open,60,Mari Joyce,59,127.5,77.5,,142.5,347.5,SBD,,1
F,Raw,Amateur Juniors 20-23,60,Joan Marchand,58.2,102.5,67.5,,125,295,SBD,,1
F,Raw,Amateur Open,60,Mae Zakupowsky,57.8,100,62.5,,150,312.5,SBD,,1
F,Raw,Pro Open,60,Tiffany Del Sasso,58.5,115,77.5,,170,362.5,SBD,,1
F,Raw,Amateur Open,67.5,Linda Burgess,63.1,102.5,45,,127.5,275,SBD,,2
F,Raw,Amateur Open,67.5,Kristyn Knapp,66,92.5,65,,147.5,305,SBD,,1
F,Raw,Amateur Masters 40-44,67.5,Shehalis Bermudez,61.3,117.5,67.5,,147.5,332.5,SBD,,1
F,Raw,Amateur Masters 50-54,67.5,Randi Stockdill,64.5,90,67.5,,115,272.5,SBD,,1
F,Raw,Amateur Open,67.5,Maria Gamboa,65.7,72.5,37.5,,105,215,SBD,,1
F,Raw,Pro Open,67.5,Breanna Jacobs,64,135,92.5,,157.5,385,SBD,,2
F,Raw,Pro Open,67.5,Amber Shackelford,67.3,145,87.5,,162.5,395,SBD,,1
F,Raw,Pro Submasters 33-39,67.5,Amber Shackelford,67.3,145,87.5,,162.5,395,SBD,,1
F,Raw,Pro Open,67.5,Brianna Linares,60.5,132.5,90,,152.5,375,SBD,,3
F,Raw,Amateur Juniors 20-23,75,Arieanna Geddie,74.5,85,45,,95,225,SBD,,1
F,Raw,Amateur Submasters 33-39,75,Melissa Young,70.3,97.5,55,,117.5,270,SBD,,2
F,Raw,Amateur Submasters 33-39,75,Valerie Williams,69.6,110,77.5,,135,322.5,SBD,,1
F,Raw,Amateur Juniors 20-23,75,Alicia Maurice,73.6,137.5,72.5,,155,365,SBD,,1
F,Raw,Amateur Open,75,Julie Klein,71.8,100,45,,130,275,SBD,,2
F,Raw,Amateur Open,75,Kathleen Gomes,74.8,157.5,82.5,,160,400,SBD,,1
F,Raw,Pro Open,75,Andrea Radford,72.7,160,87.5,,175,422.5,SBD,,3
F,Raw,Pro Open,75,Riley Presnell,73.3,182.5,105,,227.5,515,SBD,,1
F,Raw,Pro Open,75,Ashlee Montalvo,74.3,142.5,87.5,,202.5,432.5,SBD,,2
F,Raw,Pro Submasters 33-39,75,Samantha Taha,73.8,187.5,100,,195,482.5,SBD,,1
F,Raw,Amateur Open,82.5,Morgan Muha,80.9,107.5,60,,137.5,305,SBD,,1
F,Raw,Amateur Open,82.5,Kellie McThenia,81.2,147.5,72.5,,165,385,SBD,,1
F,Raw,Amateur Teen 14-15,82.5,Isabel Holguin,75.6,100,52.5,,110,262.5,SBD,,1
F,Raw,Pro Open,82.5,Katrina Curtis,82.2,162.5,115,,200,477.5,SBD,,1
F,Raw,Amateur Submasters 33-39,90,Corrianne Lambert Lustman,84.9,87.5,42.5,,130,260,SBD,,2
F,Raw,Amateur Submasters 33-39,90,Lori Bemis,87.7,112.5,62.5,,147.5,322.5,SBD,,1
F,Raw,Amateur Open,100,Jaclyn Burke,98.8,120,70,,137.5,327.5,SBD,,1
F,Raw,Amateur Submasters 33-39,100,Erica DiLenge,97.9,107.5,67.5,,122.5,297.5,SBD,,1
F,Raw,Amateur Open,100,Emi Aguilar,97.9,150,75,,150,375,SBD,,1
F,Raw,Amateur Teen 18-19,100,Reagan Shimkus,97,105,52.5,,117.5,275,SBD,,1
F,Raw,Amateur Open,110,Helen Trascitti,107.4,95,47.5,,102.5,245,SBD,,1
F,Raw,Amateur Open,110,Becky Cuthbert,101.5,150,65,,155,370,SBD,,1
F,Raw,Amateur Submasters 33-39,110,Jessica Berkery,105.6,115,82.5,,135,332.5,SBD,,2
F,Raw,Amateur Submasters 33-39,110,Erin Rayle,106.8,147.5,92.5,,165,405,SBD,,1
F,Raw,Pro Open,110,Elizabeth Aldridge,102.6,210,122.5,,240,572.5,SBD,,1
F,Raw,Amateur Masters 45-49,110+,Angela Ostermann,114.6,120,80,,152.5,352.5,SBD,,1
F,Raw,Amateur Juniors 20-23,75,Alicia Maurice,73.6,,72.5,,155,227.5,BD,,1
F,Raw,Pro Open,110,Elizabeth Aldridge,102.6,,,,240,240,D,,1
